…
``` r
#Combine LAT LON
dataset$LOC <- paste(dataset$LAT, dataset$LONG, sep = ", ")

#Find how many samples are in every location
dataset %>% 
  group_by(LOC) %>%
  summarize(samples_per_loc = n_distinct(SAMPLE))
```

    ## # A tibble: 143 x 2
    ##    LOC                 samples_per_loc
    ##    <chr>                         <int>
    ##  1 -0.6625, 73.161                   1
    ##  2 -1.8902, -84.6141                 1
    ##  3 -1.9002, -84.6265                 1
    ##  4 -12.9723, -96.0122                2
    ##  5 -12.9794, -96.0232                2
    ##  6 -13.0023, -95.9759                2
    ##  7 -15.3379, 43.2948                 2
    ##  8 -15.3424, 43.2965                 2
    ##  9 -16.9486, -100.6715               2
    ## 10 -16.9534, 53.9601                 2
    ## # ... with 133 more rows
…
